GUTIERREZ_JETER_CSC343_FALL_2017_LAB_3_MODELSIM_COMPARATOR_ADD_SUB/GUTIERREZ_JETER_CSC343_LAB3_FALL_2017/simulation/qsim/GUTIEREZ_JETER_LAB_3_FALL_2017.msim.vcd
$comment
	File created using the following command:
		vcd file GUTIEREZ_JETER_LAB_3_FALL_2017.msim.vcd -direction
$end
$date
	Mon Sep 25 19:48:41 2017
$end
$version
	ModelSim Version 10.4d
$end
$timescale
	1ps
$end

$scope module GUTIERREZ_ADDER_4_BITS_vlg_vec_tst $end
$var reg 1 ! cin $end
$var reg 4 " X [3:0] $end
$var reg 4 # Y [3:0] $end
$var wire 1 $ Cout $end
$var wire 1 % Overflow $end
$var wire 1 & sum_prime [3] $end
$var wire 1 ' sum_prime [2] $end
$var wire 1 ( sum_prime [1] $end
$var wire 1 ) sum_prime [0] $end

$scope module i1 $end
$var wire 1 * gnd $end
$var wire 1 + vcc $end
$var wire 1 , unknown $end
$var tri1 1 - devclrn $end
$var tri1 1 . devpor $end
$var tri1 1 / devoe $end
$var wire 1 0 ~QUARTUS_CREATED_GND~I_combout $end
$var wire 1 1 cin~input_o $end
$var wire 1 2 X[0]~input_o $end
$var wire 1 3 Y[0]~input_o $end
$var wire 1 4 FIRST|sum~combout $end
$var wire 1 5 X[1]~input_o $end
$var wire 1 6 Y[1]~input_o $end
$var wire 1 7 FOURTH:1:FIFTH|sum~combout $end
$var wire 1 8 X[2]~input_o $end
$var wire 1 9 FOURTH:1:FIFTH|cout_prime~0_combout $end
$var wire 1 : Y[2]~input_o $end
$var wire 1 ; FOURTH:2:FIFTH|sum~combout $end
$var wire 1 < Y[3]~input_o $end
$var wire 1 = X[3]~input_o $end
$var wire 1 > FOURTH:3:FIFTH|sum~combout $end
$var wire 1 ? FOURTH:3:FIFTH|cout_prime~0_combout $end
$var wire 1 @ Overflow~0_combout $end
$upscope $end
$upscope $end
$enddefinitions $end
#0
$dumpvars
0!
b1001 "
b1100 #
1$
1%
1)
0(
1'
0&
0*
1+
x,
1-
1.
1/
00
01
12
03
14
05
06
07
08
09
1:
1;
1<
1=
0>
1?
1@
$end
#80000
b1 "
b11 "
b1000 #
b1001 #
13
0:
15
0=
19
0@
0?
1>
0;
04
0)
0'
1&
0$
0%
1@
1;
1'
1%
#160000
b10 "
b1 #
b1010 "
b101 #
1:
0<
02
1=
09
0@
1?
0>
17
14
0;
0'
1)
1(
0&
1$
0%
0?
1>
1;
1'
1&
0$
#240000
b111 #
b1000 "
b110 #
b1110 #
05
03
16
1<
1@
1?
0>
04
0)
0&
1$
1%
#320000
b1100 "
b1010 #
b1000 #
b1110 "
b0 #
06
0:
0<
15
18
0@
0?
1>
1&
0$
0%
#400000
b1111 "
b1 #
b1011 "
b101 #
b111 #
b1111 #
13
16
1:
1<
12
08
19
1@
1?
0>
0&
1$
1%
0@
1>
0;
0'
1&
0%
#480000
b11 "
b1 "
b0 "
b1110 #
b100 "
b1010 #
b1000 #
b0 #
03
06
0:
0<
02
05
18
0=
09
1@
0?
07
0(
0$
1%
0@
0>
1;
1'
0&
0%
#560000
b1 #
b11 #
b1011 #
13
16
1<
1>
17
14
1)
1(
1&
#640000
b0 "
b1111 #
b1110 #
b1100 #
03
06
1:
08
07
04
0)
0(
#720000
b1000 "
b1100 "
b1000 #
b1010 #
16
0:
18
1=
1@
1?
0>
17
1(
0&
1$
1%
#800000
b1110 "
b1111 "
b10 #
b11 #
b111 "
b11 "
b111 #
13
1:
0<
12
15
08
0=
19
0@
0?
0$
0%
1@
1>
0;
0'
1&
1%
#880000
b1 "
b101 "
b11 #
0:
05
18
07
0(
#960000
b1 #
b1001 #
b111 "
b1101 #
15
06
1:
1<
0@
1?
0>
1;
1'
0&
1$
0%
